<?xml version='1.0' encoding='UTF-8' standalone='yes'?>
<!-- Created with gnuclad 0.2.4 -->

<svg
  xmlns='http://www.w3.org/2000/svg'
  xmlns:svg='http://www.w3.org/2000/svg'
  xmlns:xlink='http://www.w3.org/1999/xlink'
  xmlns:inkscape='http://www.inkscape.org/namespaces/inkscape'
  xmlns:sodipodi='http://sodipodi.sourceforge.net/DTD/sodipodi-0.dtd'
  xmlns:dc='http://purl.org/dc/elements/1.1/'
  xmlns:cc='http://creativecommons.org/ns#'
  xmlns:rdf='http://www.w3.org/1999/02/22-rdf-syntax-ns#'
  version='1.1'
  width='2520'
  height='1730'
>

<title>Mobile Operating Systems</title>

<defs>

  <linearGradient id='__yearline' x1='0' y1='0' x2='1' y2='0'>
    <stop stop-color='#037' offset='0' stop-opacity='1' />
    <stop stop-color='#37d' offset='1' stop-opacity='1' />
  </linearGradient>

  <linearGradient id='__infobox_fill' x1='0' y1='0' x2='0' y2='1'>
    <stop stop-color='#51b1f1' offset='0' stop-opacity='1' />
    <stop stop-color='#3181f1' offset='1' stop-opacity='1' />
  </linearGradient>
  <linearGradient id='__infobox_stroke' x1='0' y1='0' x2='0' y2='1'>
    <stop stop-color='#3181f1' offset='0' stop-opacity='1' />
    <stop stop-color='#51b1f1' offset='1' stop-opacity='1' />
  </linearGradient>
  <filter id='__infobox_shadow' color-interpolation-filters='sRGB'>
    <feGaussianBlur stdDeviation='5' />
  </filter>


  <circle id='__connectors_start' cx='0' cy='0' r='5' stroke='none' />
  <marker id='__connector_0' stroke='none' markerUnits='userSpaceOnUse' style='overflow:visible;'>
    <use xlink:href='#__connectors_start' fill='#b87c8d'  />
  </marker>
  <marker id='__connector_1' stroke='none' markerUnits='userSpaceOnUse' style='overflow:visible;'>
    <use xlink:href='#__connectors_start' fill='#b87c8d'  />
  </marker>
  <marker id='__connector_2' stroke='none' markerUnits='userSpaceOnUse' style='overflow:visible;'>
    <use xlink:href='#__connectors_start' fill='#e65d2f'  />
  </marker>
  <marker id='__connector_3' stroke='none' markerUnits='userSpaceOnUse' style='overflow:visible;'>
    <use xlink:href='#__connectors_start' fill='#747d6c'  />
  </marker>
  <marker id='__connector_4' stroke='none' markerUnits='userSpaceOnUse' style='overflow:visible;'>
    <use xlink:href='#__connectors_start' fill='#ff9600'  />
  </marker>
  <marker id='__connector_5' stroke='none' markerUnits='userSpaceOnUse' style='overflow:visible;'>
    <use xlink:href='#__connectors_start' fill='#3bb5fe'  />
  </marker>
  <marker id='__connector_6' stroke='none' markerUnits='userSpaceOnUse' style='overflow:visible;'>
    <use xlink:href='#__connectors_start' fill='#b91e46'  />
  </marker>
  <marker id='__connector_7' stroke='none' markerUnits='userSpaceOnUse' style='overflow:visible;'>
    <use xlink:href='#__connectors_start' fill='#7a96d6'  />
  </marker>
  <marker id='__connector_8' stroke='none' markerUnits='userSpaceOnUse' style='overflow:visible;'>
    <use xlink:href='#__connectors_start' fill='#004b87'  />
  </marker>
  <marker id='__connector_9' stroke='none' markerUnits='userSpaceOnUse' style='overflow:visible;'>
    <use xlink:href='#__connectors_start' fill='#ff9600'  />
  </marker>
<rect id='__fadeout' height='1' width='6' y='-0.5' x='0'/>  <linearGradient id='__fadeout_Windows__Mobile' x1='0' y1='0' x2='6' y2='0' gradientUnits='userSpaceOnUse'>
    <stop stop-color='#1f4b95' offset='0' stop-opacity='1' />
    <stop stop-color='#1f4b95' offset='1' stop-opacity='0' />
  </linearGradient>
  <marker id='__stop_Windows__Mobile' markerWidth='6' markerHeight='1' style='overflow:visible;'>
    <use xlink:href='#__fadeout' style='fill:url(#__fadeout_Windows__Mobile)' />
  </marker>
  <linearGradient id='__fadeout_BlackBerry__OS' x1='0' y1='0' x2='6' y2='0' gradientUnits='userSpaceOnUse'>
    <stop stop-color='#000000' offset='0' stop-opacity='1' />
    <stop stop-color='#000000' offset='1' stop-opacity='0' />
  </linearGradient>
  <marker id='__stop_BlackBerry__OS' markerWidth='6' markerHeight='1' style='overflow:visible;'>
    <use xlink:href='#__fadeout' style='fill:url(#__fadeout_BlackBerry__OS)' />
  </marker>
  <linearGradient id='__fadeout_Palm__OS' x1='0' y1='0' x2='6' y2='0' gradientUnits='userSpaceOnUse'>
    <stop stop-color='#747d6c' offset='0' stop-opacity='1' />
    <stop stop-color='#747d6c' offset='1' stop-opacity='0' />
  </linearGradient>
  <marker id='__stop_Palm__OS' markerWidth='6' markerHeight='1' style='overflow:visible;'>
    <use xlink:href='#__fadeout' style='fill:url(#__fadeout_Palm__OS)' />
  </marker>
  <linearGradient id='__fadeout_WebOS' x1='0' y1='0' x2='6' y2='0' gradientUnits='userSpaceOnUse'>
    <stop stop-color='#b91e46' offset='0' stop-opacity='1' />
    <stop stop-color='#b91e46' offset='1' stop-opacity='0' />
  </linearGradient>
  <marker id='__stop_WebOS' markerWidth='6' markerHeight='1' style='overflow:visible;'>
    <use xlink:href='#__fadeout' style='fill:url(#__fadeout_WebOS)' />
  </marker>
  <linearGradient id='__fadeout_Symbian' x1='0' y1='0' x2='6' y2='0' gradientUnits='userSpaceOnUse'>
    <stop stop-color='#0081b3' offset='0' stop-opacity='1' />
    <stop stop-color='#0081b3' offset='1' stop-opacity='0' />
  </linearGradient>
  <marker id='__stop_Symbian' markerWidth='6' markerHeight='1' style='overflow:visible;'>
    <use xlink:href='#__fadeout' style='fill:url(#__fadeout_Symbian)' />
  </marker>
  <linearGradient id='__fadeout_Moblin' x1='0' y1='0' x2='6' y2='0' gradientUnits='userSpaceOnUse'>
    <stop stop-color='#3bb5fe' offset='0' stop-opacity='1' />
    <stop stop-color='#3bb5fe' offset='1' stop-opacity='0' />
  </linearGradient>
  <marker id='__stop_Moblin' markerWidth='6' markerHeight='1' style='overflow:visible;'>
    <use xlink:href='#__fadeout' style='fill:url(#__fadeout_Moblin)' />
  </marker>
  <linearGradient id='__fadeout_MeeGo' x1='0' y1='0' x2='6' y2='0' gradientUnits='userSpaceOnUse'>
    <stop stop-color='#4e187a' offset='0' stop-opacity='1' />
    <stop stop-color='#4e187a' offset='1' stop-opacity='0' />
  </linearGradient>
  <marker id='__stop_MeeGo' markerWidth='6' markerHeight='1' style='overflow:visible;'>
    <use xlink:href='#__fadeout' style='fill:url(#__fadeout_MeeGo)' />
  </marker>
  <linearGradient id='__fadeout_Bada' x1='0' y1='0' x2='6' y2='0' gradientUnits='userSpaceOnUse'>
    <stop stop-color='#004b87' offset='0' stop-opacity='1' />
    <stop stop-color='#004b87' offset='1' stop-opacity='0' />
  </linearGradient>
  <marker id='__stop_Bada' markerWidth='6' markerHeight='1' style='overflow:visible;'>
    <use xlink:href='#__fadeout' style='fill:url(#__fadeout_Bada)' />
  </marker>
  <linearGradient id='__fadeout_Maemo' x1='0' y1='0' x2='6' y2='0' gradientUnits='userSpaceOnUse'>
    <stop stop-color='#ff9600' offset='0' stop-opacity='1' />
    <stop stop-color='#ff9600' offset='1' stop-opacity='0' />
  </linearGradient>
  <marker id='__stop_Maemo' markerWidth='6' markerHeight='1' style='overflow:visible;'>
    <use xlink:href='#__fadeout' style='fill:url(#__fadeout_Maemo)' />
  </marker>
  <linearGradient id='__fadeout_Firefox__OS' x1='0' y1='0' x2='6' y2='0' gradientUnits='userSpaceOnUse'>
    <stop stop-color='#e65d2f' offset='0' stop-opacity='1' />
    <stop stop-color='#e65d2f' offset='1' stop-opacity='0' />
  </linearGradient>
  <marker id='__stop_Firefox__OS' markerWidth='6' markerHeight='1' style='overflow:visible;'>
    <use xlink:href='#__fadeout' style='fill:url(#__fadeout_Firefox__OS)' />
  </marker>

<!-- BEGIN additional SVG images - definitions -->

<!-- END additional SVG images - definitions -->

</defs>

<g inkscape:label='Background' inkscape:groupmode='layer' id='layer_background' >
  <rect x='0' y='0' width='2520' height='1730' rx='25' ry='25' fill='#fff' />
</g>

<g inkscape:label='Year Rulers' inkscape:groupmode='layer' id='layer_yearrulers' stroke-width='1' stroke='#eee'>
  <line x1='10' y1='0' x2='10' y2='1730' stroke-width='2' stroke='#ddd' />
    <line x1='18' y1='0' x2='18' y2='1730' />
    <line x1='26' y1='0' x2='26' y2='1730' />
    <line x1='35' y1='0' x2='35' y2='1730' />
    <line x1='43' y1='0' x2='43' y2='1730' />
    <line x1='51' y1='0' x2='51' y2='1730' />
    <line x1='60' y1='0' x2='60' y2='1730' />
    <line x1='68' y1='0' x2='68' y2='1730' />
    <line x1='76' y1='0' x2='76' y2='1730' />
    <line x1='85' y1='0' x2='85' y2='1730' />
    <line x1='93' y1='0' x2='93' y2='1730' />
    <line x1='101' y1='0' x2='101' y2='1730' />
  <line x1='110' y1='0' x2='110' y2='1730' stroke-width='2' stroke='#ddd' />
    <line x1='118' y1='0' x2='118' y2='1730' />
    <line x1='126' y1='0' x2='126' y2='1730' />
    <line x1='135' y1='0' x2='135' y2='1730' />
    <line x1='143' y1='0' x2='143' y2='1730' />
    <line x1='151' y1='0' x2='151' y2='1730' />
    <line x1='160' y1='0' x2='160' y2='1730' />
    <line x1='168' y1='0' x2='168' y2='1730' />
    <line x1='176' y1='0' x2='176' y2='1730' />
    <line x1='185' y1='0' x2='185' y2='1730' />
    <line x1='193' y1='0' x2='193' y2='1730' />
    <line x1='201' y1='0' x2='201' y2='1730' />
  <line x1='210' y1='0' x2='210' y2='1730' stroke-width='2' stroke='#ddd' />
    <line x1='218' y1='0' x2='218' y2='1730' />
    <line x1='226' y1='0' x2='226' y2='1730' />
    <line x1='235' y1='0' x2='235' y2='1730' />
    <line x1='243' y1='0' x2='243' y2='1730' />
    <line x1='251' y1='0' x2='251' y2='1730' />
    <line x1='260' y1='0' x2='260' y2='1730' />
    <line x1='268' y1='0' x2='268' y2='1730' />
    <line x1='276' y1='0' x2='276' y2='1730' />
    <line x1='285' y1='0' x2='285' y2='1730' />
    <line x1='293' y1='0' x2='293' y2='1730' />
    <line x1='301' y1='0' x2='301' y2='1730' />
  <line x1='310' y1='0' x2='310' y2='1730' stroke-width='2' stroke='#ddd' />
    <line x1='318' y1='0' x2='318' y2='1730' />
    <line x1='326' y1='0' x2='326' y2='1730' />
    <line x1='335' y1='0' x2='335' y2='1730' />
    <line x1='343' y1='0' x2='343' y2='1730' />
    <line x1='351' y1='0' x2='351' y2='1730' />
    <line x1='360' y1='0' x2='360' y2='1730' />
    <line x1='368' y1='0' x2='368' y2='1730' />
    <line x1='376' y1='0' x2='376' y2='1730' />
    <line x1='385' y1='0' x2='385' y2='1730' />
    <line x1='393' y1='0' x2='393' y2='1730' />
    <line x1='401' y1='0' x2='401' y2='1730' />
  <line x1='410' y1='0' x2='410' y2='1730' stroke-width='2' stroke='#ddd' />
    <line x1='418' y1='0' x2='418' y2='1730' />
    <line x1='426' y1='0' x2='426' y2='1730' />
    <line x1='435' y1='0' x2='435' y2='1730' />
    <line x1='443' y1='0' x2='443' y2='1730' />
    <line x1='451' y1='0' x2='451' y2='1730' />
    <line x1='460' y1='0' x2='460' y2='1730' />
    <line x1='468' y1='0' x2='468' y2='1730' />
    <line x1='476' y1='0' x2='476' y2='1730' />
    <line x1='485' y1='0' x2='485' y2='1730' />
    <line x1='493' y1='0' x2='493' y2='1730' />
    <line x1='501' y1='0' x2='501' y2='1730' />
  <line x1='510' y1='0' x2='510' y2='1730' stroke-width='2' stroke='#ddd' />
    <line x1='518' y1='0' x2='518' y2='1730' />
    <line x1='526' y1='0' x2='526' y2='1730' />
    <line x1='535' y1='0' x2='535' y2='1730' />
    <line x1='543' y1='0' x2='543' y2='1730' />
    <line x1='551' y1='0' x2='551' y2='1730' />
    <line x1='560' y1='0' x2='560' y2='1730' />
    <line x1='568' y1='0' x2='568' y2='1730' />
    <line x1='576' y1='0' x2='576' y2='1730' />
    <line x1='585' y1='0' x2='585' y2='1730' />
    <line x1='593' y1='0' x2='593' y2='1730' />
    <line x1='601' y1='0' x2='601' y2='1730' />
  <line x1='610' y1='0' x2='610' y2='1730' stroke-width='2' stroke='#ddd' />
    <line x1='618' y1='0' x2='618' y2='1730' />
    <line x1='626' y1='0' x2='626' y2='1730' />
    <line x1='635' y1='0' x2='635' y2='1730' />
    <line x1='643' y1='0' x2='643' y2='1730' />
    <line x1='651' y1='0' x2='651' y2='1730' />
    <line x1='660' y1='0' x2='660' y2='1730' />
    <line x1='668' y1='0' x2='668' y2='1730' />
    <line x1='676' y1='0' x2='676' y2='1730' />
    <line x1='685' y1='0' x2='685' y2='1730' />
    <line x1='693' y1='0' x2='693' y2='1730' />
    <line x1='701' y1='0' x2='701' y2='1730' />
  <line x1='710' y1='0' x2='710' y2='1730' stroke-width='2' stroke='#ddd' />
    <line x1='718' y1='0' x2='718' y2='1730' />
    <line x1='726' y1='0' x2='726' y2='1730' />
    <line x1='735' y1='0' x2='735' y2='1730' />
    <line x1='743' y1='0' x2='743' y2='1730' />
    <line x1='751' y1='0' x2='751' y2='1730' />
    <line x1='760' y1='0' x2='760' y2='1730' />
    <line x1='768' y1='0' x2='768' y2='1730' />
    <line x1='776' y1='0' x2='776' y2='1730' />
    <line x1='785' y1='0' x2='785' y2='1730' />
    <line x1='793' y1='0' x2='793' y2='1730' />
    <line x1='801' y1='0' x2='801' y2='1730' />
  <line x1='810' y1='0' x2='810' y2='1730' stroke-width='2' stroke='#ddd' />
    <line x1='818' y1='0' x2='818' y2='1730' />
    <line x1='826' y1='0' x2='826' y2='1730' />
    <line x1='835' y1='0' x2='835' y2='1730' />
    <line x1='843' y1='0' x2='843' y2='1730' />
    <line x1='851' y1='0' x2='851' y2='1730' />
    <line x1='860' y1='0' x2='860' y2='1730' />
    <line x1='868' y1='0' x2='868' y2='1730' />
    <line x1='876' y1='0' x2='876' y2='1730' />
    <line x1='885' y1='0' x2='885' y2='1730' />
    <line x1='893' y1='0' x2='893' y2='1730' />
    <line x1='901' y1='0' x2='901' y2='1730' />
  <line x1='910' y1='0' x2='910' y2='1730' stroke-width='2' stroke='#ddd' />
    <line x1='918' y1='0' x2='918' y2='1730' />
    <line x1='926' y1='0' x2='926' y2='1730' />
    <line x1='935' y1='0' x2='935' y2='1730' />
    <line x1='943' y1='0' x2='943' y2='1730' />
    <line x1='951' y1='0' x2='951' y2='1730' />
    <line x1='960' y1='0' x2='960' y2='1730' />
    <line x1='968' y1='0' x2='968' y2='1730' />
    <line x1='976' y1='0' x2='976' y2='1730' />
    <line x1='985' y1='0' x2='985' y2='1730' />
    <line x1='993' y1='0' x2='993' y2='1730' />
    <line x1='1001' y1='0' x2='1001' y2='1730' />
  <line x1='1010' y1='0' x2='1010' y2='1730' stroke-width='2' stroke='#ddd' />
    <line x1='1018' y1='0' x2='1018' y2='1730' />
    <line x1='1026' y1='0' x2='1026' y2='1730' />
    <line x1='1035' y1='0' x2='1035' y2='1730' />
    <line x1='1043' y1='0' x2='1043' y2='1730' />
    <line x1='1051' y1='0' x2='1051' y2='1730' />
    <line x1='1060' y1='0' x2='1060' y2='1730' />
    <line x1='1068' y1='0' x2='1068' y2='1730' />
    <line x1='1076' y1='0' x2='1076' y2='1730' />
    <line x1='1085' y1='0' x2='1085' y2='1730' />
    <line x1='1093' y1='0' x2='1093' y2='1730' />
    <line x1='1101' y1='0' x2='1101' y2='1730' />
  <line x1='1110' y1='0' x2='1110' y2='1730' stroke-width='2' stroke='#ddd' />
    <line x1='1118' y1='0' x2='1118' y2='1730' />
    <line x1='1126' y1='0' x2='1126' y2='1730' />
    <line x1='1135' y1='0' x2='1135' y2='1730' />
    <line x1='1143' y1='0' x2='1143' y2='1730' />
    <line x1='1151' y1='0' x2='1151' y2='1730' />
    <line x1='1160' y1='0' x2='1160' y2='1730' />
    <line x1='1168' y1='0' x2='1168' y2='1730' />
    <line x1='1176' y1='0' x2='1176' y2='1730' />
    <line x1='1185' y1='0' x2='1185' y2='1730' />
    <line x1='1193' y1='0' x2='1193' y2='1730' />
    <line x1='1201' y1='0' x2='1201' y2='1730' />
  <line x1='1210' y1='0' x2='1210' y2='1730' stroke-width='2' stroke='#ddd' />
    <line x1='1218' y1='0' x2='1218' y2='1730' />
    <line x1='1226' y1='0' x2='1226' y2='1730' />
    <line x1='1235' y1='0' x2='1235' y2='1730' />
    <line x1='1243' y1='0' x2='1243' y2='1730' />
    <line x1='1251' y1='0' x2='1251' y2='1730' />
    <line x1='1260' y1='0' x2='1260' y2='1730' />
    <line x1='1268' y1='0' x2='1268' y2='1730' />
    <line x1='1276' y1='0' x2='1276' y2='1730' />
    <line x1='1285' y1='0' x2='1285' y2='1730' />
    <line x1='1293' y1='0' x2='1293' y2='1730' />
    <line x1='1301' y1='0' x2='1301' y2='1730' />
  <line x1='1310' y1='0' x2='1310' y2='1730' stroke-width='2' stroke='#ddd' />
    <line x1='1318' y1='0' x2='1318' y2='1730' />
    <line x1='1326' y1='0' x2='1326' y2='1730' />
    <line x1='1335' y1='0' x2='1335' y2='1730' />
    <line x1='1343' y1='0' x2='1343' y2='1730' />
    <line x1='1351' y1='0' x2='1351' y2='1730' />
    <line x1='1360' y1='0' x2='1360' y2='1730' />
    <line x1='1368' y1='0' x2='1368' y2='1730' />
    <line x1='1376' y1='0' x2='1376' y2='1730' />
    <line x1='1385' y1='0' x2='1385' y2='1730' />
    <line x1='1393' y1='0' x2='1393' y2='1730' />
    <line x1='1401' y1='0' x2='1401' y2='1730' />
  <line x1='1410' y1='0' x2='1410' y2='1730' stroke-width='2' stroke='#ddd' />
    <line x1='1418' y1='0' x2='1418' y2='1730' />
    <line x1='1426' y1='0' x2='1426' y2='1730' />
    <line x1='1435' y1='0' x2='1435' y2='1730' />
    <line x1='1443' y1='0' x2='1443' y2='1730' />
    <line x1='1451' y1='0' x2='1451' y2='1730' />
    <line x1='1460' y1='0' x2='1460' y2='1730' />
    <line x1='1468' y1='0' x2='1468' y2='1730' />
    <line x1='1476' y1='0' x2='1476' y2='1730' />
    <line x1='1485' y1='0' x2='1485' y2='1730' />
    <line x1='1493' y1='0' x2='1493' y2='1730' />
    <line x1='1501' y1='0' x2='1501' y2='1730' />
  <line x1='1510' y1='0' x2='1510' y2='1730' stroke-width='2' stroke='#ddd' />
    <line x1='1518' y1='0' x2='1518' y2='1730' />
    <line x1='1526' y1='0' x2='1526' y2='1730' />
    <line x1='1535' y1='0' x2='1535' y2='1730' />
    <line x1='1543' y1='0' x2='1543' y2='1730' />
    <line x1='1551' y1='0' x2='1551' y2='1730' />
    <line x1='1560' y1='0' x2='1560' y2='1730' />
    <line x1='1568' y1='0' x2='1568' y2='1730' />
    <line x1='1576' y1='0' x2='1576' y2='1730' />
    <line x1='1585' y1='0' x2='1585' y2='1730' />
    <line x1='1593' y1='0' x2='1593' y2='1730' />
    <line x1='1601' y1='0' x2='1601' y2='1730' />
  <line x1='1610' y1='0' x2='1610' y2='1730' stroke-width='2' stroke='#ddd' />
    <line x1='1618' y1='0' x2='1618' y2='1730' />
    <line x1='1626' y1='0' x2='1626' y2='1730' />
    <line x1='1635' y1='0' x2='1635' y2='1730' />
    <line x1='1643' y1='0' x2='1643' y2='1730' />
    <line x1='1651' y1='0' x2='1651' y2='1730' />
    <line x1='1660' y1='0' x2='1660' y2='1730' />
    <line x1='1668' y1='0' x2='1668' y2='1730' />
    <line x1='1676' y1='0' x2='1676' y2='1730' />
    <line x1='1685' y1='0' x2='1685' y2='1730' />
    <line x1='1693' y1='0' x2='1693' y2='1730' />
    <line x1='1701' y1='0' x2='1701' y2='1730' />
  <line x1='1710' y1='0' x2='1710' y2='1730' stroke-width='2' stroke='#ddd' />
    <line x1='1718' y1='0' x2='1718' y2='1730' />
    <line x1='1726' y1='0' x2='1726' y2='1730' />
    <line x1='1735' y1='0' x2='1735' y2='1730' />
    <line x1='1743' y1='0' x2='1743' y2='1730' />
    <line x1='1751' y1='0' x2='1751' y2='1730' />
    <line x1='1760' y1='0' x2='1760' y2='1730' />
    <line x1='1768' y1='0' x2='1768' y2='1730' />
    <line x1='1776' y1='0' x2='1776' y2='1730' />
    <line x1='1785' y1='0' x2='1785' y2='1730' />
    <line x1='1793' y1='0' x2='1793' y2='1730' />
    <line x1='1801' y1='0' x2='1801' y2='1730' />
  <line x1='1810' y1='0' x2='1810' y2='1730' stroke-width='2' stroke='#ddd' />
    <line x1='1818' y1='0' x2='1818' y2='1730' />
    <line x1='1826' y1='0' x2='1826' y2='1730' />
    <line x1='1835' y1='0' x2='1835' y2='1730' />
    <line x1='1843' y1='0' x2='1843' y2='1730' />
    <line x1='1851' y1='0' x2='1851' y2='1730' />
    <line x1='1860' y1='0' x2='1860' y2='1730' />
    <line x1='1868' y1='0' x2='1868' y2='1730' />
    <line x1='1876' y1='0' x2='1876' y2='1730' />
    <line x1='1885' y1='0' x2='1885' y2='1730' />
    <line x1='1893' y1='0' x2='1893' y2='1730' />
    <line x1='1901' y1='0' x2='1901' y2='1730' />
  <line x1='1910' y1='0' x2='1910' y2='1730' stroke-width='2' stroke='#ddd' />
    <line x1='1918' y1='0' x2='1918' y2='1730' />
    <line x1='1926' y1='0' x2='1926' y2='1730' />
    <line x1='1935' y1='0' x2='1935' y2='1730' />
    <line x1='1943' y1='0' x2='1943' y2='1730' />
    <line x1='1951' y1='0' x2='1951' y2='1730' />
    <line x1='1960' y1='0' x2='1960' y2='1730' />
    <line x1='1968' y1='0' x2='1968' y2='1730' />
    <line x1='1976' y1='0' x2='1976' y2='1730' />
    <line x1='1985' y1='0' x2='1985' y2='1730' />
    <line x1='1993' y1='0' x2='1993' y2='1730' />
    <line x1='2001' y1='0' x2='2001' y2='1730' />
  <line x1='2010' y1='0' x2='2010' y2='1730' stroke-width='2' stroke='#ddd' />
    <line x1='2018' y1='0' x2='2018' y2='1730' />
    <line x1='2026' y1='0' x2='2026' y2='1730' />
    <line x1='2035' y1='0' x2='2035' y2='1730' />
    <line x1='2043' y1='0' x2='2043' y2='1730' />
    <line x1='2051' y1='0' x2='2051' y2='1730' />
    <line x1='2060' y1='0' x2='2060' y2='1730' />
    <line x1='2068' y1='0' x2='2068' y2='1730' />
    <line x1='2076' y1='0' x2='2076' y2='1730' />
    <line x1='2085' y1='0' x2='2085' y2='1730' />
    <line x1='2093' y1='0' x2='2093' y2='1730' />
    <line x1='2101' y1='0' x2='2101' y2='1730' />
  <line x1='2110' y1='0' x2='2110' y2='1730' stroke-width='2' stroke='#ddd' />
    <line x1='2118' y1='0' x2='2118' y2='1730' />
    <line x1='2126' y1='0' x2='2126' y2='1730' />
    <line x1='2135' y1='0' x2='2135' y2='1730' />
    <line x1='2143' y1='0' x2='2143' y2='1730' />
    <line x1='2151' y1='0' x2='2151' y2='1730' />
    <line x1='2160' y1='0' x2='2160' y2='1730' />
    <line x1='2168' y1='0' x2='2168' y2='1730' />
    <line x1='2176' y1='0' x2='2176' y2='1730' />
    <line x1='2185' y1='0' x2='2185' y2='1730' />
    <line x1='2193' y1='0' x2='2193' y2='1730' />
    <line x1='2201' y1='0' x2='2201' y2='1730' />
  <line x1='2210' y1='0' x2='2210' y2='1730' stroke-width='2' stroke='#ddd' />
    <line x1='2218' y1='0' x2='2218' y2='1730' />
    <line x1='2226' y1='0' x2='2226' y2='1730' />
    <line x1='2235' y1='0' x2='2235' y2='1730' />
    <line x1='2243' y1='0' x2='2243' y2='1730' />
    <line x1='2251' y1='0' x2='2251' y2='1730' />
    <line x1='2260' y1='0' x2='2260' y2='1730' />
    <line x1='2268' y1='0' x2='2268' y2='1730' />
    <line x1='2276' y1='0' x2='2276' y2='1730' />
    <line x1='2285' y1='0' x2='2285' y2='1730' />
    <line x1='2293' y1='0' x2='2293' y2='1730' />
    <line x1='2301' y1='0' x2='2301' y2='1730' />
  <line x1='2310' y1='0' x2='2310' y2='1730' stroke-width='2' stroke='#ddd' />
    <line x1='2318' y1='0' x2='2318' y2='1730' />
    <line x1='2326' y1='0' x2='2326' y2='1730' />
    <line x1='2335' y1='0' x2='2335' y2='1730' />
    <line x1='2343' y1='0' x2='2343' y2='1730' />
    <line x1='2351' y1='0' x2='2351' y2='1730' />
    <line x1='2360' y1='0' x2='2360' y2='1730' />
    <line x1='2368' y1='0' x2='2368' y2='1730' />
    <line x1='2376' y1='0' x2='2376' y2='1730' />
    <line x1='2385' y1='0' x2='2385' y2='1730' />
    <line x1='2393' y1='0' x2='2393' y2='1730' />
    <line x1='2401' y1='0' x2='2401' y2='1730' />
  <line x1='2410' y1='0' x2='2410' y2='1730' stroke-width='2' stroke='#ddd' />
    <line x1='2418' y1='0' x2='2418' y2='1730' />
    <line x1='2426' y1='0' x2='2426' y2='1730' />
    <line x1='2435' y1='0' x2='2435' y2='1730' />
    <line x1='2443' y1='0' x2='2443' y2='1730' />
    <line x1='2451' y1='0' x2='2451' y2='1730' />
    <line x1='2460' y1='0' x2='2460' y2='1730' />
    <line x1='2468' y1='0' x2='2468' y2='1730' />
    <line x1='2476' y1='0' x2='2476' y2='1730' />
    <line x1='2485' y1='0' x2='2485' y2='1730' />
    <line x1='2493' y1='0' x2='2493' y2='1730' />
    <line x1='2501' y1='0' x2='2501' y2='1730' />
  <line x1='2510' y1='0' x2='2510' y2='1730' stroke-width='2' stroke='#ddd' />
</g>

<g inkscape:label='Domains' inkscape:groupmode='layer' id='layer_domains' >
</g>

<g inkscape:label='Connectors' inkscape:groupmode='layer' id='layer_connectors'
style='opacity:0.6;' >
  <line x1='1535' y1='167' x2='1535' y2='315' stroke='#b87c8d' stroke-width='4' stroke-dasharray='4,4' marker-start='url(#__connector_0)' />
  <line x1='2118' y1='167' x2='2118' y2='315' stroke='#b87c8d' stroke-width='4' stroke-dasharray='4,4' marker-start='url(#__connector_1)' />
  <line x1='1935' y1='1567' x2='2126' y2='1615' stroke='#e65d2f' stroke-width='4' stroke-dasharray='4,4' marker-start='url(#__connector_2)' />
  <line x1='1310' y1='567' x2='1343' y2='615' stroke='#747d6c' stroke-width='4' stroke-dasharray='4,4' marker-start='url(#__connector_3)' />
  <line x1='1393' y1='1363' x2='1418' y2='1165' stroke='#ff9600' stroke-width='4' stroke-dasharray='4,4' marker-start='url(#__connector_4)' />
  <line x1='1393' y1='817' x2='1418' y2='1165' stroke='#3bb5fe' stroke-width='4' stroke-dasharray='4,4' marker-start='url(#__connector_5)' />
  <line x1='1651' y1='617' x2='1876' y2='665' stroke='#b91e46' stroke-width='4' stroke-dasharray='4,4' marker-start='url(#__connector_6)' />
  <line x1='1710' y1='1013' x2='1743' y2='765' stroke='#7a96d6' stroke-width='4' stroke-dasharray='4,4' marker-start='url(#__connector_7)' />
  <line x1='1651' y1='1313' x2='1651' y2='1215' stroke='#004b87' stroke-width='4' stroke-dasharray='4,4' marker-start='url(#__connector_8)' />
  <line x1='1593' y1='1367' x2='2218' y2='1415' stroke='#ff9600' stroke-width='4' stroke-dasharray='4,4' marker-start='url(#__connector_9)' />
</g>

<g inkscape:label='Lines' inkscape:groupmode='layer' id='layer_lines'
 style='fill:none;stroke-width:5;' >
  <path id='__line_Fuchsia' d='M 2068 115 L 2424 115' stroke='#be73da' style='stroke-width:5;' />
  <path id='__line_CyanogenMod' d='M 1360 263 L 1360 165 L 2424 165' stroke='#2edf85' style='stroke-width:5;' />
  <path id='__line_/e/' d='M 2260 167 L 2260 215 L 2424 215' stroke='#b2d686' style='stroke-width:5;' />
  <path id='__line_Android__Open__Source__Project__(AOSP)' d='M 1110 265 L 2424 265' stroke='#2edf85' style='stroke-width:5;' />
  <path id='__line_Replicant' d='M 1451 267 L 1451 315 L 2424 315' stroke='#b87c8d' style='stroke-width:5;' />
  <path id='__line_Android' d='M 1276 267 L 1276 365 L 2424 365' stroke='#2edf85' style='stroke-width:5;' />
  <path id='__line_iOS' d='M 1151 415 L 2424 415' stroke='#9f9d9e' style='stroke-width:5;' />
  <path id='__line_Windows__Mobile' d='M 435 465 L 1951 465' stroke='#1f4b95' style='stroke-width:5;' marker-end='url(#__stop_Windows__Mobile)' />
  <path id='__line_BlackBerry__OS' d='M 310 515 L 1793 515' stroke='#000000' style='stroke-width:5;' marker-end='url(#__stop_BlackBerry__OS)' />
  <path id='__line_Palm__OS' d='M 10 565 L 1310 565' stroke='#747d6c' style='stroke-width:5;' marker-end='url(#__stop_Palm__OS)' />
  <path id='__line_WebOS' d='M 1343 615 L 1651 615' stroke='#b91e46' style='stroke-width:5;' marker-end='url(#__stop_WebOS)' />
  <path id='__line_LuneOS' d='M 1876 665 L 2424 665' stroke='#51b7ff' style='stroke-width:5;' />
  <path id='__line_Symbian' d='M 151 715 L 1685 715' stroke='#0081b3' style='stroke-width:5;' marker-end='url(#__stop_Symbian)' />
  <path id='__line_Ubuntu__Phone' d='M 1585 765 L 2424 765' stroke='#631350' style='stroke-width:5;' />
  <path id='__line_Moblin' d='M 1160 815 L 1393 815' stroke='#3bb5fe' style='stroke-width:5;' marker-end='url(#__stop_Moblin)' />
  <path id='__line_Nemo__Mobile' d='M 1743 1013 L 1743 915 L 2424 915' stroke='#298ebc' style='stroke-width:5;' />
  <path id='__line_Yuanxin__OS' d='M 1893 1013 L 1893 965 L 2424 965' stroke='#0f0' style='stroke-width:5;' />
  <path id='__line_Mer' d='M 1710 1163 L 1710 1015 L 2424 1015' stroke='#7a96d6' style='stroke-width:5;' />
  <path id='__line_Plasma__Mobile' d='M 1860 1017 L 1860 1065 L 2424 1065' stroke='#eb8200' style='stroke-width:5;' />
  <path id='__line_Sailfish__OS' d='M 1743 1017 L 1743 1115 L 2424 1115' stroke='#17827b' style='stroke-width:5;' />
  <path id='__line_MeeGo' d='M 1418 1165 L 1710 1165' stroke='#4e187a' style='stroke-width:5;' marker-end='url(#__stop_MeeGo)' />
  <path id='__line_Tizen' d='M 1651 1167 L 1651 1215 L 2424 1215' stroke='#415562' style='stroke-width:5;' />
  <path id='__line_Bada' d='M 1418 1315 L 1718 1315' stroke='#004b87' style='stroke-width:5;' marker-end='url(#__stop_Bada)' />
  <path id='__line_Maemo' d='M 993 1365 L 1593 1365' stroke='#ff9600' style='stroke-width:5;' marker-end='url(#__stop_Maemo)' />
  <path id='__line_Maemo__Leste' d='M 2218 1415 L 2424 1415' stroke='#fcb017' style='stroke-width:5;' />
  <path id='__line_PureOS' d='M 2260 1465 L 2424 1465' stroke='#0268e4' style='stroke-width:5;' />
  <path id='__line_PostmarketOS' d='M 2143 1515 L 2424 1515' stroke='#009900' style='stroke-width:5;' />
  <path id='__line_Firefox__OS' d='M 1718 1565 L 1935 1565' stroke='#e65d2f' style='stroke-width:5;' marker-end='url(#__stop_Firefox__OS)' />
  <path id='__line_KaiOS' d='M 2126 1615 L 2424 1615' stroke='#6f02b0' style='stroke-width:5;' />
</g>

<g inkscape:label='Dots' inkscape:groupmode='layer' id='layer_dots'
 style='stroke:none;' >
  <circle id='__dot_Fuchsia' cx='2068' cy='115' r='10' fill='#be73da' stroke='none' />
  <circle id='__dot_CyanogenMod' cx='1360' cy='165' r='10' fill='#2edf85' stroke='none' />
    <circle cx='2101' cy='165' r='5' fill='#2edf85' stroke='none' />
  <circle id='__dot_/e/' cx='2260' cy='215' r='10' fill='#b2d686' stroke='none' />
  <circle id='__dot_Android__Open__Source__Project__(AOSP)' cx='1110' cy='265' r='10' fill='#2edf85' stroke='none' />
  <circle id='__dot_Replicant' cx='1451' cy='315' r='10' fill='#b87c8d' stroke='none' />
  <circle id='__dot_Android' cx='1276' cy='365' r='10' fill='#2edf85' stroke='none' />
  <circle id='__dot_iOS' cx='1151' cy='415' r='10' fill='#9f9d9e' stroke='none' />
  <circle id='__dot_Windows__Mobile' cx='435' cy='465' r='10' fill='#1f4b95' stroke='none' />
    <circle cx='1443' cy='465' r='5' fill='#1f4b95' stroke='none' />
  <circle id='__dot_BlackBerry__OS' cx='310' cy='515' r='10' fill='#000000' stroke='none' />
  <circle id='__dot_Palm__OS' cx='10' cy='565' r='10' fill='#747d6c' stroke='none' />
    <circle cx='1110' cy='565' r='5' fill='#747d6c' stroke='none' />
  <circle id='__dot_WebOS' cx='1343' cy='615' r='10' fill='#b91e46' stroke='none' />
  <circle id='__dot_LuneOS' cx='1876' cy='665' r='10' fill='#51b7ff' stroke='none' />
  <circle id='__dot_Symbian' cx='151' cy='715' r='10' fill='#0081b3' stroke='none' />
  <circle id='__dot_Ubuntu__Phone' cx='1585' cy='765' r='10' fill='#631350' stroke='none' />
    <circle cx='2143' cy='765' r='5' fill='#631350' stroke='none' />
  <circle id='__dot_Moblin' cx='1160' cy='815' r='10' fill='#3bb5fe' stroke='none' />
  <circle id='__dot_Nemo__Mobile' cx='1743' cy='915' r='10' fill='#298ebc' stroke='none' />
  <circle id='__dot_Yuanxin__OS' cx='1893' cy='965' r='10' fill='#0f0' stroke='none' />
  <circle id='__dot_Mer' cx='1710' cy='1015' r='10' fill='#7a96d6' stroke='none' />
  <circle id='__dot_Plasma__Mobile' cx='1860' cy='1065' r='10' fill='#eb8200' stroke='none' />
  <circle id='__dot_Sailfish__OS' cx='1743' cy='1115' r='10' fill='#17827b' stroke='none' />
  <circle id='__dot_MeeGo' cx='1418' cy='1165' r='10' fill='#4e187a' stroke='none' />
  <circle id='__dot_Tizen' cx='1651' cy='1215' r='10' fill='#415562' stroke='none' />
    <circle cx='1718' cy='1215' r='5' fill='#415562' stroke='none' />
  <circle id='__dot_Bada' cx='1418' cy='1315' r='10' fill='#004b87' stroke='none' />
  <circle id='__dot_Maemo' cx='993' cy='1365' r='10' fill='#ff9600' stroke='none' />
  <circle id='__dot_Maemo__Leste' cx='2218' cy='1415' r='10' fill='#fcb017' stroke='none' />
  <circle id='__dot_PureOS' cx='2260' cy='1465' r='10' fill='#0268e4' stroke='none' />
  <circle id='__dot_PostmarketOS' cx='2143' cy='1515' r='10' fill='#009900' stroke='none' />
  <circle id='__dot_Firefox__OS' cx='1718' cy='1565' r='10' fill='#e65d2f' stroke='none' />
  <circle id='__dot_KaiOS' cx='2126' cy='1615' r='10' fill='#6f02b0' stroke='none' />
</g>

<g inkscape:label='Icons' inkscape:groupmode='layer' id='layer_icons'>
</g>

<g inkscape:label='Labels' inkscape:groupmode='layer' id='layer_labels' 
 style='font-size:25px;stroke:none;fill:#000;font-family:Liberation Sans, Arial, Helvetica;-inkscape-font-specification:Liberation Sans, Arial, Helvetica;' >
  <rect x='2075' y='85' width='96' height='25' fill='#fff' opacity='0.5'  rx='5' ry='5' />
  <text x='2078' y='106'  >Fuchsia</text>
  <rect x='1367' y='135' width='181' height='25' fill='#fff' opacity='0.5'  rx='5' ry='5' />
  <text x='1370' y='156'  >CyanogenMod</text>
    <rect x='2103' y='135' width='139' height='25' fill='#fff' opacity='0.5'  rx='5' ry='5' />
    <text x='2106' y='156' >LineageOS</text>
  <rect x='2267' y='185' width='42' height='25' fill='#fff' opacity='0.5'  rx='5' ry='5' />
  <text x='2270' y='206'  >/e/</text>
  <rect x='1117' y='235' width='471' height='25' fill='#fff' opacity='0.5'  rx='5' ry='5' />
  <text x='1120' y='256'  >Android Open Source Project (AOSP)</text>
  <rect x='1458' y='285' width='117' height='25' fill='#fff' opacity='0.5'  rx='5' ry='5' />
  <text x='1461' y='306'  >Replicant</text>
  <rect x='1283' y='335' width='98' height='25' fill='#fff' opacity='0.5'  rx='5' ry='5' />
  <text x='1286' y='356'  >Android</text>
  <rect x='1158' y='385' width='45' height='25' fill='#fff' opacity='0.5'  rx='5' ry='5' />
  <text x='1161' y='406'  >iOS</text>
  <rect x='442' y='435' width='204' height='25' fill='#fff' opacity='0.5'  rx='5' ry='5' />
  <text x='445' y='456'  >Windows Mobile</text>
    <rect x='1445' y='435' width='202' height='25' fill='#fff' opacity='0.5'  rx='5' ry='5' />
    <text x='1448' y='456' >Windows Phone</text>
  <rect x='317' y='485' width='182' height='25' fill='#fff' opacity='0.5'  rx='5' ry='5' />
  <text x='320' y='506'  >BlackBerry OS</text>
  <rect x='17' y='535' width='110' height='25' fill='#fff' opacity='0.5'  rx='5' ry='5' />
  <text x='20' y='556'  >Palm OS</text>
    <rect x='1112' y='535' width='131' height='25' fill='#fff' opacity='0.5'  rx='5' ry='5' />
    <text x='1115' y='556' >Garnet OS</text>
  <rect x='1350' y='585' width='94' height='25' fill='#fff' opacity='0.5'  rx='5' ry='5' />
  <text x='1353' y='606'  >WebOS</text>
  <rect x='1883' y='635' width='101' height='25' fill='#fff' opacity='0.5'  rx='5' ry='5' />
  <text x='1886' y='656'  >LuneOS</text>
  <rect x='158' y='685' width='108' height='25' fill='#fff' opacity='0.5'  rx='5' ry='5' />
  <text x='161' y='706'  >Symbian</text>
  <rect x='1592' y='735' width='180' height='25' fill='#fff' opacity='0.5'  rx='5' ry='5' />
  <text x='1595' y='756'  >Ubuntu Phone</text>
    <rect x='2145' y='735' width='301' height='25' fill='#fff' opacity='0.5'  rx='5' ry='5' />
    <text x='2148' y='756' >Ubuntu Touch (Ubports)</text>
  <rect x='1167' y='785' width='83' height='25' fill='#fff' opacity='0.5'  rx='5' ry='5' />
  <text x='1170' y='806'  >Moblin</text>
  <rect x='1750' y='885' width='165' height='25' fill='#fff' opacity='0.5'  rx='5' ry='5' />
  <text x='1753' y='906'  >Nemo Mobile</text>
  <rect x='1900' y='935' width='149' height='25' fill='#fff' opacity='0.5'  rx='5' ry='5' />
  <text x='1903' y='956'  >Yuanxin OS</text>
  <rect x='1717' y='985' width='47' height='25' fill='#fff' opacity='0.5'  rx='5' ry='5' />
  <text x='1720' y='1006'  >Mer</text>
  <rect x='1867' y='1035' width='184' height='25' fill='#fff' opacity='0.5'  rx='5' ry='5' />
  <text x='1870' y='1056'  >Plasma Mobile</text>
  <rect x='1750' y='1085' width='138' height='25' fill='#fff' opacity='0.5'  rx='5' ry='5' />
  <text x='1753' y='1106'  >Sailfish OS</text>
  <rect x='1425' y='1135' width='89' height='25' fill='#fff' opacity='0.5'  rx='5' ry='5' />
  <text x='1428' y='1156'  >MeeGo</text>
  <rect x='1658' y='1185' width='67' height='25' fill='#fff' opacity='0.5'  rx='5' ry='5' />
  <text x='1661' y='1206'  >Tizen</text>
    <rect x='1740' y='1185' width='115' height='25' fill='#fff' opacity='0.5'  rx='5' ry='5' />
    <text x='1743' y='1206' >Tizen 2.0</text>
  <rect x='1425' y='1285' width='65' height='25' fill='#fff' opacity='0.5'  rx='5' ry='5' />
  <text x='1428' y='1306'  >Bada</text>
  <rect x='1000' y='1335' width='91' height='25' fill='#fff' opacity='0.5'  rx='5' ry='5' />
  <text x='1003' y='1356'  >Maemo</text>
  <rect x='2225' y='1385' width='168' height='25' fill='#fff' opacity='0.5'  rx='5' ry='5' />
  <text x='2228' y='1406'  >Maemo Leste</text>
  <rect x='2267' y='1435' width='97' height='25' fill='#fff' opacity='0.5'  rx='5' ry='5' />
  <text x='2270' y='1456'  >PureOS</text>
  <rect x='2150' y='1485' width='176' height='25' fill='#fff' opacity='0.5'  rx='5' ry='5' />
  <text x='2153' y='1506'  >PostmarketOS</text>
  <rect x='1725' y='1535' width='131' height='25' fill='#fff' opacity='0.5'  rx='5' ry='5' />
  <text x='1728' y='1556'  >Firefox OS</text>
  <rect x='2133' y='1585' width='79' height='25' fill='#fff' opacity='0.5'  rx='5' ry='5' />
  <text x='2136' y='1606'  >KaiOS</text>
</g>

<g inkscape:label='Yearlines' inkscape:groupmode='layer' id='layer_yearlines' 
 style='stroke:none;fill:url(#__yearline);' >
  <rect x='0' y='0' rx='5' ry='5' width='2520' height='40' />
  <rect x='0' y='1690' rx='5' ry='5' width='2520' height='40' />
  <g style='font-size:28px;stroke:none;fill:#fff;font-family:Liberation Sans, Arial, Helvetica;-inkscape-font-specification:Liberation Sans, Arial, Helvetica;text-anchor:middle;' >
    <text x='60' y='30'><tspan>1996</tspan></text>
    <text x='60' y='1720'><tspan>1996</tspan></text>
    <text x='160' y='30'><tspan>1997</tspan></text>
    <text x='160' y='1720'><tspan>1997</tspan></text>
    <text x='260' y='30'><tspan>1998</tspan></text>
    <text x='260' y='1720'><tspan>1998</tspan></text>
    <text x='360' y='30'><tspan>1999</tspan></text>
    <text x='360' y='1720'><tspan>1999</tspan></text>
    <text x='460' y='30'><tspan>2000</tspan></text>
    <text x='460' y='1720'><tspan>2000</tspan></text>
    <text x='560' y='30'><tspan>2001</tspan></text>
    <text x='560' y='1720'><tspan>2001</tspan></text>
    <text x='660' y='30'><tspan>2002</tspan></text>
    <text x='660' y='1720'><tspan>2002</tspan></text>
    <text x='760' y='30'><tspan>2003</tspan></text>
    <text x='760' y='1720'><tspan>2003</tspan></text>
    <text x='860' y='30'><tspan>2004</tspan></text>
    <text x='860' y='1720'><tspan>2004</tspan></text>
    <text x='960' y='30'><tspan>2005</tspan></text>
    <text x='960' y='1720'><tspan>2005</tspan></text>
    <text x='1060' y='30'><tspan>2006</tspan></text>
    <text x='1060' y='1720'><tspan>2006</tspan></text>
    <text x='1160' y='30'><tspan>2007</tspan></text>
    <text x='1160' y='1720'><tspan>2007</tspan></text>
    <text x='1260' y='30'><tspan>2008</tspan></text>
    <text x='1260' y='1720'><tspan>2008</tspan></text>
    <text x='1360' y='30'><tspan>2009</tspan></text>
    <text x='1360' y='1720'><tspan>2009</tspan></text>
    <text x='1460' y='30'><tspan>2010</tspan></text>
    <text x='1460' y='1720'><tspan>2010</tspan></text>
    <text x='1560' y='30'><tspan>2011</tspan></text>
    <text x='1560' y='1720'><tspan>2011</tspan></text>
    <text x='1660' y='30'><tspan>2012</tspan></text>
    <text x='1660' y='1720'><tspan>2012</tspan></text>
    <text x='1760' y='30'><tspan>2013</tspan></text>
    <text x='1760' y='1720'><tspan>2013</tspan></text>
    <text x='1860' y='30'><tspan>2014</tspan></text>
    <text x='1860' y='1720'><tspan>2014</tspan></text>
    <text x='1960' y='30'><tspan>2015</tspan></text>
    <text x='1960' y='1720'><tspan>2015</tspan></text>
    <text x='2060' y='30'><tspan>2016</tspan></text>
    <text x='2060' y='1720'><tspan>2016</tspan></text>
    <text x='2160' y='30'><tspan>2017</tspan></text>
    <text x='2160' y='1720'><tspan>2017</tspan></text>
    <text x='2260' y='30'><tspan>2018</tspan></text>
    <text x='2260' y='1720'><tspan>2018</tspan></text>
    <text x='2360' y='30'><tspan>2019</tspan></text>
    <text x='2360' y='1720'><tspan>2019</tspan></text>
    <text x='2460' y='30'><tspan>2020</tspan></text>
    <text x='2460' y='1720'><tspan>2020</tspan></text>
  </g>
</g>

<g inkscape:label='Infobox' inkscape:groupmode='layer' id='layer_infobox'
 style='stroke:none;fill:#000;font-family:Liberation Sans, Arial, Helvetica;-inkscape-font-specification:Liberation Sans, Arial, Helvetica;' >
  <rect x='10' y='42' width='250' height='30' rx='10' ry='10' fill='#000' filter='url(#__infobox_shadow)' opacity='0.6' />
  <rect x='10' y='42' width='250' height='30' rx='10' ry='10' fill='url(#__infobox_fill)' stroke='url(#__infobox_stroke)' stroke-width='2' />
  <text x='16' y='63'><tspan style='font-size:18px;font-weight:bold;'>Mobile Operating Systems</tspan></text>
</g>

<!-- BEGIN additional images -->

<g inkscape:label='Included PNG Images' inkscape:groupmode='layer' id='layer_included_png'>
</g>

<g inkscape:label='Included SVG Images' inkscape:groupmode='layer' id='layer_included_svg'>
</g>

<!-- END additional images -->

</svg>
